[1,"** Installing R Packages: 'BiocManager', 'knitr'\n"]
[1,"[1/8] Installing BiocManager...\n"]
[2,"trying URL 'https://cran.rstudio.com/bin/macosx/contrib/4.1/BiocManager_1.30.15.tgz'\n"]
[2,"Content type 'application/x-gzip' length 322791 bytes (315 KB)\n================="]
[1,"The downloaded binary packages are in\n"]
[1,"\t/var/folders/ww/ftq6y30j7lj0pmmjk0xgjt6r0000gr/T//Rtmpksg8u9/downloaded_packages\n"]
[1,"[2/8] Installing evaluate...\n"]
[2,"=================================\ndownloaded 315 KB\n\n"]
[2,"trying URL 'https://cran.rstudio.com/bin/macosx/contrib/4.1/evaluate_0.14.tgz'\n"]
[2,"Content type 'application/x-gzip' length 74620 bytes (72 KB)\n========================"]
[1,"The downloaded binary packages are in\n"]
[1,"\t/var/folders/ww/ftq6y30j7lj0pmmjk0xgjt6r0000gr/T//Rtmpksg8u9/downloaded_packages\n"]
[1,"[3/8] Installing highr...\n"]
[2,"==========================\ndownloaded 72 KB\n\n"]
[2,"also installing the dependency ‘xfun’\n\n"]
[2,"trying URL 'https://cran.rstudio.com/bin/macosx/contrib/4.1/xfun_0.23.tgz'\n"]
[2,"Content type 'application/x-gzip' length 334819 bytes (326 KB)\n=============================================="]
[2,"====\ndownloaded 326 KB\n\ntrying URL 'https://cran.rstudio.com/bin/macosx/contrib/4.1/highr_0.9.tgz'\n"]
[1,"The downloaded binary packages are in\n"]
[1,"\t/var/folders/ww/ftq6y30j7lj0pmmjk0xgjt6r0000gr/T//Rtmpksg8u9/downloaded_packages\n"]
[1,"[4/8] Installing markdown...\n"]
[2,"Content type 'application/x-gzip' length 39056 bytes (38 KB)\n==================================================\ndownloaded 38 KB\n\n"]
[2,"also installing the dependency ‘mime’\n\n"]
[2,"trying URL 'https://cran.rstudio.com/bin/macosx/contrib/4.1/mime_0.10.tgz'\n"]
[2,"Content type 'application/x-gzip' length 35424 bytes (34 KB)\n==================================================\ndownloaded 34 KB\n\ntrying URL 'https://cran.rstudio.com/bin/macosx/contrib/4.1/markdown_1.1.tgz'\n"]
[2,"Content type 'application/x-gzip' length 198813 bytes (194 KB)\n================================"]
[1,"The downloaded binary packages are in\n"]
[1,"\t/var/folders/ww/ftq6y30j7lj0pmmjk0xgjt6r0000gr/T//Rtmpksg8u9/downloaded_packages\n"]
[1,"[5/8] Installing stringr...\n"]
[2,"==================\ndownloaded 194 KB\n\n"]
[2,"also installing the dependencies ‘glue’, ‘magrittr’, ‘stringi’\n\n"]
[2,"trying URL 'https://cran.rstudio.com/bin/macosx/contrib/4.1/glue_1.4.2.tgz'\n"]
[2,"Content type 'application/x-gzip' length 139193 bytes (135 KB)\n"]
[2,"====="]
[2,"=============================================\ndownloaded 135 KB\n\ntrying URL 'https://cran.rstudio.com/bin/macosx/contrib/4.1/magrittr_2.0.1.tgz'\n"]
[2,"Content type 'application/x-gzip' length 224197 bytes (218 KB)\n==================================================\ndownloaded 218 KB\n\n"]
[2,"trying URL 'https://cran.rstudio.com/bin/macosx/contrib/4.1/stringi_1.6.2.tgz'\n"]
[2,"Content type 'application/x-gzip' length 14596931 bytes (13.9 MB)\n="]
[2,"=="]
[2,"==="]
[2,"====="]
[2,"======"]
[2,"====="]
[2,"======"]
[2,"======="]
[2,"======="]
[2,"========\ndownloaded 13.9 MB\n\n"]
[2,"trying URL 'https://cran.rstudio.com/bin/macosx/contrib/4.1/stringr_1.4.0.tgz'\n"]
[2,"Content type 'application/x-gzip' length 210036 bytes (205 KB)\n==================================================\ndownloaded 205 KB\n\n"]
[1,"The downloaded binary packages are in\n"]
[1,"\t/var/folders/ww/ftq6y30j7lj0pmmjk0xgjt6r0000gr/T//Rtmpksg8u9/downloaded_packages\n"]
[1,"[6/8] Installing yaml...\n"]
[2,"trying URL 'https://cran.rstudio.com/bin/macosx/contrib/4.1/yaml_2.2.1.tgz'\n"]
[2,"Content type 'application/x-gzip' length 203061 bytes (198 KB)\n======="]
[1,"The downloaded binary packages are in\n"]
[1,"\t/var/folders/ww/ftq6y30j7lj0pmmjk0xgjt6r0000gr/T//Rtmpksg8u9/downloaded_packages\n"]
[1,"[7/8] Installing xfun...\n"]
[2,"===========================================\ndownloaded 198 KB\n\n"]
[2,"trying URL 'https://cran.rstudio.com/bin/macosx/contrib/4.1/xfun_0.23.tgz'\n"]
[2,"Content type 'application/x-gzip' length 334819 bytes (326 KB)\n=============="]
[2,"=="]
[1,"The downloaded binary packages are in\n"]
[1,"\t/var/folders/ww/ftq6y30j7lj0pmmjk0xgjt6r0000gr/T//Rtmpksg8u9/downloaded_packages\n"]
[1,"[8/8] Installing knitr...\n"]
[2,"==================================\ndownloaded 326 KB\n\n"]
[2,"trying URL 'https://cran.rstudio.com/bin/macosx/contrib/4.1/knitr_1.33.tgz'\n"]
[2,"Content type 'application/x-gzip' length 1410207 bytes (1.3 MB)\n======"]
[2,"================================="]
[2,"===========\ndownloaded 1.3 MB\n\n"]
[1,"The downloaded binary packages are in\n"]
[1,"\t/var/folders/ww/ftq6y30j7lj0pmmjk0xgjt6r0000gr/T//Rtmpksg8u9/downloaded_packages\n"]
[2,"\n\n✔ Packages successfully installed.\n"]
